Project 1: EDA & Modeling
…
# A tibble: 1 x 9
  r_squared adj_r_squared   mse  rmse sigma statistic p_value    df  nobs
      <dbl>         <dbl> <dbl> <dbl> <dbl>     <dbl>   <dbl> <dbl> <dbl>
1     0.263         0.262  4.96  2.23  2.23      320.       0     1   898

Test Predictions

Dr.Thomley is female and 59" tall. Her mother is 56" and her father was 511. NBA great Wilt Chamberlain was male and 71. His dad, William Chamberlain, was 58. His mom, Olivia Ruth Johnson, was at 59. Use your model to predict Dr.Thomleys and Wilt Chamberlains heights and calculate the residuals for these predictions.

vals <- galton_heights %>% select(Midparent)
get_regression_points(model, newdata=vals) %>%
  rename(predicted_HeightT = HeightT_hat)

# A tibble: 898 x 3
      ID Midparent predicted_HeightT
   <int>     <dbl>             <dbl>
 1     1      72.8              73.9
 2     2      72.8              73.9
 3     3      72.8              73.9
 4     4      72.8              73.9
 5     5      71                72.5
 6     6      71                72.5
 7     7      71                72.5
 8     8      71                72.5
 9     9      69.5              71.4
10    10      69.5              71.4
#  with 888 more rows
…
